{
	"Easy" : 
	[
		{
			"Id" : "e0",
			"Difficulty" : 0,
			"Width" : 7,
			"Height" : 7,
			"LevelData" : 
			[	
				[3, 0, 0, 0, 6, 0, 3],
				[0, 2, 0, 4, 0, 0, 0],
				[0, 0, 0, 0, 0, 0, 0],
				[4, 0, 0, 4, 0, 0, 0],
				[0, 2, 0, 0, 4, 0, 0],
				[0, 0, 0, 0, 0, 0, 0],
				[2, 0, 0, 2, 0, 0, 2]
			]
		},
		{
			"Id" : "e1",
			"Difficulty" : 0,
			"Width" : 7,
			"Height" : 7,
			"LevelData" : 
			[	
				[2, 0, 0, 0, 0, 2, 0],
				[0, 0, 0, 0, 0, 0, 0],
				[0, 3, 0, 6, 0, 3, 0],
				[0, 0, 0, 0, 0, 0, 0],
				[0, 0, 1, 0, 2, 0, 1],
				[0, 1, 0, 2, 0, 0, 0],
				[2, 0, 4, 0, 3, 0, 0]
			]
		},
		{
			"Id" : "e2",
			"Difficulty" : 0,
			"Width" : 7,
			"Height" : 7,
			"LevelData" : 
			[	
				[2, 0, 3, 0, 4, 0, 3],
				[0, 3, 0, 0, 0, 3, 0],
				[0, 0, 0, 0, 1, 0, 0],
				[3, 0, 0, 0, 0, 0, 0],
				[0, 3, 0, 0, 3, 0, 0],
				[3, 0, 2, 0, 0, 2, 0],
				[0, 0, 0, 0, 0, 0, 1]
			]
		},
		{
			"Id" : "e3",
			"Difficulty" : 0,
			"Width" : 7,
			"Height" : 7,
			"LevelData" : 
			[	
				[3, 0, 0, 0, 0, 0, 4],
				[0, 0, 2, 0, 0, 1, 0],
				[0, 0, 0, 0, 0, 0, 0],
				[0, 0, 4, 0, 0, 0, 3],
				[3, 0, 0, 0, 0, 0, 0],
				[0, 0, 3, 0, 0, 0, 1],
				[4, 0, 0, 4, 0, 2, 0]
			]
		},
		{
			"Id" : "e4",
			"Difficulty" : 0,
			"Width" : 7,
			"Height" : 7,
			"LevelData" : 
			[	
				[0, 0, 0, 0, 0, 0, 1],
				[4, 0, 0, 4, 0, 1, 0],
				[0, 0, 0, 0, 0, 0, 0],
				[0, 2, 0, 7, 0, 0, 5],
				[4, 0, 0, 0, 0, 0, 0],
				[0, 1, 0, 3, 0, 0, 0],
				[4, 0, 2, 0, 1, 0, 3]
			]
		},
		{
			"Id" : "e5",
			"Difficulty" : 0,
			"Width" : 7,
			"Height" : 7,
			"LevelData" : 
			[	
				[3, 0, 0, 2, 0, 0, 0],
				[0, 0, 4, 0, 6, 0, 4],
				[0, 0, 0, 2, 0, 0, 0],
				[0, 0, 0, 0, 2, 0, 0],
				[0, 0, 0, 3, 0, 0, 4],
				[0, 0, 4, 0, 2, 0, 0],
				[3, 0, 0, 0, 0, 0, 3]
			]
		},
		{
			"Id" : "e6",
			"Difficulty" : 0,
			"Width" : 7,
			"Height" : 7,
			"LevelData" : 
			[	
				[1, 0, 4, 0, 0, 0, 3],
				[0, 0, 0, 0, 0, 0, 0],
				[1, 0, 0, 2, 0, 0, 4],
				[0, 0, 0, 0, 0, 0, 0],
				[0, 0, 0, 4, 0, 0, 6],
				[0, 0, 0, 0, 0, 0, 0],
				[2, 0, 4, 0, 0, 0, 3]
			]
		},
		{
			"Id" : "e7",
			"Difficulty" : 0,
			"Width" : 7,
			"Height" : 7,
			"LevelData" : 
			[	
				[4, 0, 0, 4, 0, 2, 0],
				[0, 0, 2, 0, 3, 0, 3],
				[0, 0, 0, 0, 0, 0, 0],
				[6, 0, 0, 5, 0, 3, 0],
				[0, 0, 0, 0, 0, 0, 0],
				[0, 0, 0, 0, 0, 2, 0],
				[4, 0, 0, 6, 0, 0, 4]
			]
		},
		{
			"Id" : "e8",
			"Difficulty" : 0,
			"Width" : 7,
			"Height" : 7,
			"LevelData" : 
			[	
				[1, 0, 0, 3, 0, 3, 0],
				[0, 0, 0, 0, 0, 0, 2],
				[0, 0, 0, 0, 0, 1, 0],
				[4, 0, 0, 5, 0, 0, 3],
				[0, 0, 0, 0, 0, 1, 0],
				[0, 1, 0, 2, 0, 0, 0],
				[2, 0, 0, 0, 0, 2, 0]
			]
		},
		{
			"Id" : "e9",
			"Difficulty" : 0,
			"Width" : 7,
			"Height" : 7,
			"LevelData" : 
			[	
				[0, 2, 0, 0, 0, 0, 0],
				[0, 0, 0, 3, 0, 0, 3],
				[0, 0, 0, 0, 0, 2, 0],
				[0, 4, 0, 0, 0, 0, 0],
				[1, 0, 0, 0, 0, 0, 0],
				[0, 4, 0, 5, 0, 3, 0],
				[3, 0, 0, 0, 0, 0, 4]
			]
		},
		{
			"Id" : "e10",
			"Difficulty" : 0,
			"Width" : 7,
			"Height" : 7,
			"LevelData" : 
			[	
				[0, 2, 0, 0, 0, 0, 3],
				[2, 0, 3, 0, 3, 0, 0],
				[0, 0, 0, 0, 0, 0, 0],
				[0, 0, 1, 0, 0, 0, 0],
				[1, 0, 0, 0, 0, 0, 0],
				[0, 0, 0, 0, 0, 0, 0],
				[1, 0, 3, 0, 3, 0, 2]
			]
		},
		{
			"Id" : "e11",
			"Difficulty" : 0,
			"Width" : 7,
			"Height" : 7,
			"LevelData" : 
			[	
				[3, 0, 0, 0, 4, 0, 2],
				[0, 0, 0, 0, 0, 0, 0],
				[5, 0, 2, 0, 0, 0, 0],
				[0, 0, 0, 0, 0, 0, 1],
				[5, 0, 2, 0, 0, 0, 0],
				[0, 2, 0, 0, 4, 0, 1],
				[3, 0, 0, 2, 0, 0, 0]
			]
		},
		{
			"Id" : "e12",
			"Difficulty" : 0,
			"Width" : 7,
			"Height" : 7,
			"LevelData" : 
			[	
				[4, 0, 0, 0, 4, 0, 1],
				[0, 2, 0, 3, 0, 0, 0],
				[0, 0, 0, 0, 2, 0, 2],
				[4, 0, 0, 2, 0, 0, 0],
				[0, 0, 0, 0, 0, 0, 3],
				[0, 2, 0, 0, 3, 0, 0],
				[3, 0, 0, 0, 0, 0, 3]
			]
		},
		{
			"Id" : "e13",
			"Difficulty" : 0,
			"Width" : 7,
			"Height" : 7,
			"LevelData" : 
			[	
				[2, 0, 3, 0, 4, 0, 2],
				[0, 0, 0, 0, 0, 0, 0],
				[0, 0, 2, 0, 0, 0, 3],
				[0, 0, 0, 0, 0, 0, 0],
				[4, 0, 0, 0, 7, 0, 5],
				[0, 0, 0, 0, 0, 0, 0],
				[3, 0, 2, 0, 2, 0, 1]
			]
		},
		{
			"Id" : "e14",
			"Difficulty" : 0,
			"Width" : 7,
			"Height" : 7,
			"LevelData" : 
			[	
				[2, 0, 1, 0, 4, 0, 4],
				[0, 0, 0, 0, 0, 0, 0],
				[4, 0, 0, 0, 5, 0, 0],
				[0, 0, 0, 0, 0, 0, 0],
				[4, 0, 1, 0, 2, 0, 0],
				[0, 0, 0, 0, 0, 0, 0],
				[3, 0, 0, 0, 0, 0, 4]
			]
		},
		{
			"Id" : "e15",
			"Difficulty" : 0,
			"Width" : 7,
			"Height" : 7,
			"LevelData" : 
			[	
				[2, 0, 4, 0, 0, 0, 4],
				[0, 0, 0, 0, 1, 0, 0],
				[0, 0, 1, 0, 0, 0, 0],
				[3, 0, 0, 0, 2, 0, 0],
				[0, 1, 0, 2, 0, 0, 4],
				[0, 0, 0, 0, 0, 0, 0],
				[3, 0, 0, 0, 0, 0, 3]
			]
		},
		{
			"Id" : "e16",
			"Difficulty" : 0,
			"Width" : 7,
			"Height" : 7,
			"LevelData" : 
			[	
				[4, 0, 0, 4, 0, 0, 3],
				[0, 0, 0, 0, 0, 0, 0],
				[0, 0, 4, 0, 2, 0, 0],
				[0, 0, 0, 0, 0, 0, 0],
				[0, 0, 0, 0, 4, 0, 5],
				[4, 0, 4, 0, 0, 0, 0],
				[0, 0, 0, 0, 3, 0, 3]
			]
		},
		{
			"Id" : "e17",
			"Difficulty" : 0,
			"Width" : 7,
			"Height" : 7,
			"LevelData" : 
			[	
				[0, 1, 0, 3, 0, 0, 1],
				[3, 0, 3, 0, 0, 0, 0],
				[0, 0, 0, 4, 0, 0, 5],
				[0, 0, 1, 0, 0, 0, 0],
				[5, 0, 0, 6, 0, 0, 5],
				[0, 0, 0, 0, 0, 0, 0],
				[2, 0, 0, 4, 0, 0, 3]
			]
		},
		{
			"Id" : "e18",
			"Difficulty" : 0,
			"Width" : 7,
			"Height" : 7,
			"LevelData" : 
			[	
				[4, 0, 0, 0, 4, 0, 0],
				[0, 2, 0, 1, 0, 0, 2],
				[2, 0, 0, 0, 0, 0, 0],
				[0, 3, 0, 0, 7, 0, 5],
				[0, 0, 0, 0, 0, 0, 0],
				[0, 0, 0, 0, 0, 0, 0],
				[0, 3, 0, 0, 5, 0, 2]
			]
		},
		{
			"Id" : "e19",
			"Difficulty" : 0,
			"Width" : 7,
			"Height" : 7,
			"LevelData" : 
			[	
				[4, 0, 0, 0, 0, 2, 0],
				[0, 2, 0, 5, 0, 0, 2],
				[0, 0, 0, 0, 0, 0, 0],
				[0, 0, 0, 0, 0, 2, 0],
				[0, 0, 0, 0, 0, 0, 0],
				[0, 1, 0, 0, 0, 0, 0],
				[4, 0, 0, 5, 0, 3, 0]
			]
		},
		{
			"Id" : "e20",
			"Difficulty" : 0,
			"Width" : 7,
			"Height" : 7,
			"LevelData" : 
			[	
				[3, 0, 0, 0, 0, 0, 4],
				[0, 3, 0, 0, 0, 3, 0],
				[0, 0, 0, 2, 0, 0, 0],
				[0, 0, 0, 0, 0, 0, 4],
				[3, 0, 0, 4, 0, 3, 0],
				[0, 3, 0, 0, 0, 0, 4],
				[3, 0, 3, 0, 2, 0, 0]
			]
		},
		{
			"Id" : "e21",
			"Difficulty" : 0,
			"Width" : 7,
			"Height" : 7,
			"LevelData" : 
			[	
				[4, 0, 4, 0, 0, 0, 3],
				[0, 1, 0, 0, 0, 0, 0],
				[0, 0, 0, 0, 0, 0, 0],
				[0, 3, 0, 0, 0, 0, 0],
				[2, 0, 0, 0, 0, 0, 0],
				[0, 0, 2, 0, 1, 0, 0],
				[0, 3, 0, 0, 0, 0, 3]
			]
		},
		{
			"Id" : "e22",
			"Difficulty" : 0,
			"Width" : 7,
			"Height" : 7,
			"LevelData" : 
			[	
				[2, 0, 1, 0, 1, 0, 0],
				[0, 0, 0, 0, 0, 0, 1],
				[5, 0, 0, 0, 3, 0, 0],
				[0, 0, 0, 0, 0, 0, 0],
				[5, 0, 0, 0, 0, 0, 3],
				[0, 0, 0, 0, 0, 0, 0],
				[3, 0, 0, 0, 0, 2, 0]
			]
		},
		{
			"Id" : "e23",
			"Difficulty" : 0,
			"Width" : 7,
			"Height" : 7,
			"LevelData" : 
			[	
				[3, 0, 0, 0, 0, 2, 0],
				[0, 0, 0, 0, 0, 0, 2],
				[0, 1, 0, 0, 0, 2, 0],
				[5, 0, 0, 0, 0, 0, 5],
				[0, 0, 0, 0, 0, 0, 0],
				[0, 2, 0, 0, 0, 0, 4],
				[4, 0, 4, 0, 2, 0, 0]
			]
		},
		{
			"Id" : "e24",
			"Difficulty" : 0,
			"Width" : 7,
			"Height" : 7,
			"LevelData" : 
			[	
				[3, 0, 0, 0, 0, 0, 3],
				[0, 0, 2, 0, 3, 0, 0],
				[5, 0, 0, 3, 0, 0, 0],
				[0, 0, 0, 0, 0, 0, 0],
				[0, 1, 0, 2, 0, 0, 0],
				[0, 0, 0, 0, 0, 0, 0],
				[3, 0, 0, 0, 2, 0, 1]
			]
		},
		{
			"Id" : "e25",
			"Difficulty" : 0,
			"Width" : 7,
			"Height" : 7,
			"LevelData" : 
			[	
				[3, 0, 0, 0, 0, 2, 0],
				[0, 3, 0, 5, 0, 0, 2],
				[0, 0, 0, 0, 0, 1, 0],
				[0, 0, 0, 0, 0, 0, 0],
				[0, 0, 0, 6, 0, 3, 0],
				[0, 2, 0, 0, 0, 0, 0],
				[2, 0, 0, 4, 0, 1, 0]
			]
		},
		{
			"Id" : "e26",
			"Difficulty" : 0,
			"Width" : 7,
			"Height" : 7,
			"LevelData" : 
			[	
				[3, 0, 4, 0, 0, 3, 0],
				[0, 0, 0, 0, 0, 0, 0],
				[3, 0, 0, 0, 0, 0, 0],
				[0, 0, 0, 0, 0, 0, 0],
				[0, 0, 0, 0, 0, 0, 2],
				[0, 0, 0, 1, 0, 3, 0],
				[2, 0, 4, 0, 0, 0, 3]
			]
		},
		{
			"Id" : "e27",
			"Difficulty" : 0,
			"Width" : 7,
			"Height" : 7,
			"LevelData" : 
			[	
				[3, 0, 0, 0, 4, 0, 2],
				[0, 0, 0, 0, 0, 0, 0],
				[5, 0, 0, 3, 0, 0, 0],
				[0, 0, 0, 0, 0, 0, 0],
				[0, 1, 0, 3, 0, 0, 3],
				[4, 0, 2, 0, 0, 0, 0],
				[0, 2, 0, 0, 5, 0, 3]
			]
		},
		{
			"Id" : "e28",
			"Difficulty" : 0,
			"Width" : 7,
			"Height" : 7,
			"LevelData" : 
			[	
				[3, 0, 0, 3, 0, 1, 0],
				[0, 0, 3, 0, 0, 0, 2],
				[0, 0, 0, 1, 0, 3, 0],
				[0, 0, 0, 0, 0, 0, 0],
				[4, 0, 5, 0, 0, 3, 0],
				[0, 0, 0, 0, 0, 0, 0],
				[1, 0, 1, 0, 0, 0, 2]
			]
		},
		{
			"Id" : "e29",
			"Difficulty" : 0,
			"Width" : 7,
			"Height" : 7,
			"LevelData" : 
			[	
				[0, 0, 0, 2, 0, 0, 4],
				[3, 0, 3, 0, 0, 3, 0],
				[0, 0, 0, 0, 2, 0, 4],
				[2, 0, 0, 0, 0, 0, 0],
				[0, 0, 0, 0, 0, 2, 0],
				[0, 0, 0, 0, 0, 0, 0],
				[1, 0, 3, 0, 4, 0, 3]
			]
		}
	],
	"Medium" : 
	[
		{
			"Id" : "m1",
			"Difficulty" : 1,
			"Width" : 7,
			"Height" : 7,
			"LevelData" : 
			[	
				[4, 0, 3, 0, 4, 0, 2],
				[0, 0, 0, 0, 0, 0, 0],
				[5, 0, 0, 0, 4, 0, 0],
				[0, 0, 0, 0, 0, 0, 0],
				[0, 1, 0, 0, 4, 0, 4],
				[4, 0, 0, 0, 0, 2, 0],
				[0, 2, 0, 0, 0, 0, 3]
			]
		},
		{
			"Id" : "m2",
			"Difficulty" : 1,
			"Width" : 7,
			"Height" : 7,
			"LevelData" : 
			[	
				[4, 0, 4, 0, 1, 0, 2],
				[0, 0, 0, 0, 0, 0, 0],
				[0, 0, 3, 0, 0, 0, 3],
				[5, 0, 0, 0, 3, 0, 0],
				[0, 0, 0, 0, 0, 0, 3],
				[0, 0, 1, 0, 3, 0, 0],
				[4, 0, 0, 0, 0, 0, 4]
			]
		},
		{
			"Id" : "m3",
			"Difficulty" : 1,
			"Width" : 7,
			"Height" : 7,
			"LevelData" : 
			[	
				[3, 0, 0, 4, 0, 0, 2],
				[0, 0, 1, 0, 0, 0, 0],
				[0, 0, 0, 0, 4, 0, 5],
				[0, 0, 0, 0, 0, 0, 0],
				[4, 0, 5, 0, 2, 0, 0],
				[0, 0, 0, 3, 0, 0, 3],
				[1, 0, 5, 0, 2, 0, 0]
			]
		},
		{
			"Id" : "m4",
			"Difficulty" : 1,
			"Width" : 7,
			"Height" : 7,
			"LevelData" : 
			[	
				[2, 0, 3, 0, 5, 0, 3],
				[0, 0, 0, 0, 0, 0, 0],
				[0, 0, 0, 0, 0, 0, 0],
				[0, 0, 2, 0, 3, 0, 0],
				[0, 0, 0, 2, 0, 0, 6],
				[3, 0, 4, 0, 0, 1, 0],
				[0, 2, 0, 0, 4, 0, 4]
			]
		},
		{
			"Id" : "m5",
			"Difficulty" : 1,
			"Width" : 7,
			"Height" : 7,
			"LevelData" : 
			[	
				[2, 0, 0, 2, 0, 0, 2],
				[0, 3, 0, 0, 0, 1, 0],
				[0, 0, 2, 0, 3, 0, 4],
				[0, 0, 0, 0, 0, 0, 0],
				[1, 0, 0, 0, 0, 0, 2],
				[0, 0, 1, 0, 0, 0, 0],
				[0, 4, 0, 0, 5, 0, 2]
			]
		},
		{
			"Id" : "m6",
			"Difficulty" : 1,
			"Width" : 10,
			"Height" : 10,
			"LevelData" : 
			[	
				[2, 0, 0, 1, 0, 3, 0, 0, 0, 4],
				[0, 4, 0, 0, 0, 0, 5, 0, 2, 0],
				[0, 0, 0, 4, 0, 2, 0, 0, 0, 0],
				[3, 0, 0, 0, 0, 0, 0, 0, 0, 0],
				[0, 5, 0, 5, 0, 1, 0, 0, 0, 0],
				[0, 0, 0, 0, 0, 0, 0, 0, 0, 0],
				[0, 5, 0, 4, 0, 0, 6, 0, 0, 4],
				[0, 0, 3, 0, 0, 1, 0, 0, 2, 0],
				[0, 1, 0, 0, 0, 0, 0, 0, 0, 0],
				[2, 0, 5, 0, 0, 0, 5, 0, 3, 0]
			]
		},
		{
			"Id" : "m7",
			"Difficulty" : 1,
			"Width" : 10,
			"Height" : 10,
			"LevelData" : 
			[	
				[3, 0, 0, 0, 0, 0, 0, 3, 0, 1],
				[0, 2, 0, 0, 0, 0, 4, 0, 2, 0],
				[0, 0, 0, 0, 0, 0, 0, 0, 0, 0],
				[3, 0, 0, 1, 0, 3, 0, 0, 0, 0],
				[0, 0, 0, 0, 0, 0, 0, 0, 0, 0],
				[0, 4, 0, 0, 0, 3, 0, 0, 0, 0],
				[4, 0, 0, 0, 0, 0, 0, 0, 3, 0],
				[0, 0, 0, 0, 0, 0, 0, 0, 0, 0],
				[0, 4, 0, 0, 0, 2, 0, 0, 0, 0],
				[4, 0, 0, 0, 0, 0, 6, 0, 4, 0]
			]
		},
		{
			"Id" : "m8",
			"Difficulty" : 1,
			"Width" : 10,
			"Height" : 10,
			"LevelData" : 
			[	
				[0, 1, 0, 0, 5, 0, 0, 0, 2, 0],
				[4, 0, 0, 4, 0, 4, 0, 5, 0, 4],
				[0, 2, 0, 0, 0, 0, 0, 0, 0, 0],
				[2, 0, 0, 0, 0, 0, 0, 0, 0, 0],
				[0, 0, 0, 0, 0, 0, 0, 0, 0, 0],
				[0, 6, 0, 5, 0, 0, 0, 0, 0, 0],
				[0, 0, 0, 0, 0, 4, 0, 0, 0, 0],
				[0, 0, 0, 0, 0, 0, 0, 0, 0, 0],
				[0, 0, 0, 1, 0, 2, 0, 0, 0, 0],
				[0, 4, 0, 0, 6, 0, 0, 5, 0, 4]
			]
		},
		{
			"Id" : "m9",
			"Difficulty" : 1,
			"Width" : 10,
			"Height" : 10,
			"LevelData" : 
			[	
				[0, 2, 0, 3, 0, 0, 3, 0, 3, 0],
				[3, 0, 3, 0, 0, 0, 0, 4, 0, 0],
				[0, 0, 0, 0, 0, 0, 0, 0, 0, 1],
				[6, 0, 0, 0, 0, 0, 3, 0, 0, 0],
				[0, 2, 0, 5, 0, 4, 0, 0, 0, 0],
				[0, 0, 0, 0, 2, 0, 0, 2, 0, 2],
				[0, 0, 0, 0, 0, 2, 0, 0, 0, 0],
				[0, 1, 0, 0, 3, 0, 6, 0, 3, 0],
				[0, 0, 0, 0, 0, 0, 0, 0, 0, 0],
				[3, 0, 0, 5, 0, 0, 6, 0, 0, 3]
			]
		},
		{
			"Id" : "m10",
			"Difficulty" : 1,
			"Width" : 10,
			"Height" : 10,
			"LevelData" : 
			[	
				[0, 0, 1, 0, 0, 0, 0, 0, 0, 3],
				[2, 0, 0, 0, 4, 0, 0, 2, 0, 0],
				[0, 0, 0, 0, 0, 0, 0, 0, 0, 0],
				[0, 0, 0, 0, 1, 0, 0, 0, 0, 0],
				[4, 0, 0, 0, 0, 0, 3, 0, 0, 0],
				[0, 0, 0, 0, 0, 0, 0, 0, 0, 0],
				[0, 0, 0, 0, 0, 0, 1, 0, 0, 0],
				[6, 0, 0, 0, 0, 0, 0, 7, 0, 6],
				[0, 0, 0, 0, 0, 0, 0, 0, 0, 0],
				[3, 0, 3, 0, 4, 0, 0, 6, 0, 4]
			]
		},
		{
			"Id" : "m11",
			"Difficulty" : 1,
			"Width" : 10,
			"Height" : 10,
			"LevelData" : 
			[	
				[3, 0, 0, 0, 0, 0, 0, 0, 0, 3],
				[0, 2, 0, 0, 2, 0, 4, 0, 2, 0],
				[0, 0, 0, 0, 0, 0, 0, 1, 0, 3],
				[0, 3, 0, 2, 0, 0, 0, 0, 0, 0],
				[0, 0, 0, 0, 0, 0, 0, 0, 0, 0],
				[4, 0, 3, 0, 7, 0, 4, 0, 0, 0],
				[0, 1, 0, 2, 0, 0, 0, 0, 0, 0],
				[4, 0, 2, 0, 0, 0, 0, 0, 0, 0],
				[0, 0, 0, 0, 4, 0, 2, 0, 0, 0],
				[3, 0, 0, 4, 0, 0, 0, 4, 0, 3]
			]
		},
		{
			"Id" : "m12",
			"Difficulty" : 1,
			"Width" : 10,
			"Height" : 10,
			"LevelData" : 
			[	
				[0, 2, 0, 6, 0, 2, 0, 0, 0, 0],
				[4, 0, 3, 0, 2, 0, 0, 4, 0, 3],
				[0, 0, 0, 0, 0, 0, 0, 0, 0, 0],
				[0, 0, 1, 0, 1, 0, 0, 1, 0, 0],
				[5, 0, 0, 6, 0, 0, 0, 0, 0, 2],
				[0, 2, 0, 0, 0, 0, 0, 0, 0, 0],
				[0, 0, 0, 0, 1, 0, 0, 0, 0, 2],
				[0, 0, 0, 0, 0, 0, 0, 0, 0, 0],
				[0, 3, 0, 4, 0, 0, 0, 0, 0, 3],
				[2, 0, 3, 0, 0, 0, 0, 0, 1, 0]
			]
		},
		{
			"Id" : "m13",
			"Difficulty" : 1,
			"Width" : 10,
			"Height" : 10,
			"LevelData" : 
			[	
				[0, 1, 0, 4, 0, 0, 3, 0, 2, 0],
				[0, 0, 0, 0, 0, 0, 0, 0, 0, 0],
				[3, 0, 0, 4, 0, 0, 0, 0, 0, 3],
				[0, 0, 0, 0, 0, 1, 0, 0, 2, 0],
				[0, 3, 0, 0, 2, 0, 0, 0, 0, 0],
				[0, 0, 0, 1, 0, 0, 1, 0, 0, 0],
				[2, 0, 0, 0, 0, 0, 0, 0, 0, 0],
				[0, 0, 0, 0, 0, 0, 4, 0, 3, 0],
				[0, 3, 0, 2, 0, 0, 0, 0, 0, 0],
				[1, 0, 0, 0, 3, 0, 4, 0, 0, 4]
			]
		},
		{
			"Id" : "m14",
			"Difficulty" : 1,
			"Width" : 10,
			"Height" : 10,
			"LevelData" : 
			[	
				[3, 0, 0, 0, 0, 3, 0, 0, 2, 0],
				[0, 2, 0, 0, 3, 0, 0, 0, 0, 2],
				[4, 0, 0, 1, 0, 4, 0, 2, 0, 0],
				[0, 0, 0, 0, 0, 0, 0, 0, 0, 4],
				[5, 0, 0, 0, 5, 0, 1, 0, 0, 0],
				[0, 0, 0, 0, 0, 0, 0, 0, 0, 0],
				[4, 0, 0, 1, 0, 0, 2, 0, 0, 0],
				[0, 0, 0, 0, 0, 0, 0, 1, 0, 0],
				[0, 0, 0, 0, 2, 0, 2, 0, 2, 0],
				[2, 0, 0, 0, 0, 4, 0, 2, 0, 3]
			]
		},
		{
			"Id" : "m15",
			"Difficulty" : 1,
			"Width" : 10,
			"Height" : 10,
			"LevelData" : 
			[	
				[3, 0, 4, 0, 0, 0, 0, 3, 0, 2],
				[0, 0, 0, 0, 0, 0, 0, 0, 0, 0],
				[0, 0, 0, 0, 0, 0, 0, 0, 0, 3],
				[0, 0, 2, 0, 0, 0, 1, 0, 0, 0],
				[0, 0, 0, 0, 0, 0, 0, 0, 0, 0],
				[3, 0, 3, 0, 0, 0, 1, 0, 0, 0],
				[0, 0, 0, 0, 0, 0, 0, 0, 0, 0],
				[0, 0, 6, 0, 0, 0, 0, 3, 0, 0],
				[0, 0, 0, 0, 0, 0, 0, 0, 0, 0],
				[2, 0, 3, 0, 0, 1, 0, 2, 0, 4]
			]
		},
		{
			"Id" : "m16",
			"Difficulty" : 1,
			"Width" : 10,
			"Height" : 10,
			"LevelData" : 
			[	
				[3, 0, 0, 0, 3, 0, 0, 0, 1, 0],
				[0, 0, 0, 0, 0, 0, 0, 0, 0, 0],
				[0, 0, 3, 0, 5, 0, 0, 0, 0, 4],
				[0, 0, 0, 2, 0, 4, 0, 3, 0, 0],
				[0, 0, 1, 0, 0, 0, 0, 0, 0, 0],
				[0, 0, 0, 1, 0, 0, 0, 0, 0, 0],
				[0, 0, 2, 0, 0, 4, 0, 0, 0, 0],
				[0, 0, 0, 0, 0, 0, 0, 0, 0, 0],
				[3, 0, 2, 0, 1, 0, 0, 0, 0, 0],
				[0, 0, 0, 2, 0, 5, 0, 4, 0, 3]
			]
		},
		{
			"Id" : "m17",
			"Difficulty" : 1,
			"Width" : 10,
			"Height" : 10,
			"LevelData" : 
			[	
				[0, 2, 0, 0, 0, 0, 0, 0, 0, 3],
				[3, 0, 0, 0, 0, 0, 5, 0, 3, 0],
				[0, 1, 0, 0, 1, 0, 0, 0, 0, 0],
				[1, 0, 0, 0, 0, 0, 0, 0, 0, 0],
				[0, 0, 0, 2, 0, 0, 0, 0, 1, 0],
				[0, 0, 0, 0, 0, 0, 2, 0, 0, 3],
				[0, 0, 0, 0, 0, 0, 0, 0, 0, 0],
				[0, 3, 0, 3, 0, 0, 0, 0, 0, 0],
				[0, 0, 0, 0, 0, 0, 0, 0, 0, 0],
				[0, 2, 0, 0, 4, 0, 0, 0, 0, 3]
			]
		},
		{
			"Id" : "m18",
			"Difficulty" : 1,
			"Width" : 10,
			"Height" : 10,
			"LevelData" : 
			[	
				[2, 0, 0, 0, 5, 0, 0, 5, 0, 1],
				[0, 0, 0, 0, 0, 0, 0, 0, 0, 0],
				[0, 1, 0, 0, 3, 0, 2, 0, 0, 0],
				[0, 0, 0, 0, 0, 0, 0, 5, 0, 4],
				[0, 0, 0, 0, 0, 0, 3, 0, 0, 0],
				[0, 0, 0, 0, 0, 0, 0, 0, 0, 4],
				[4, 0, 0, 0, 0, 0, 4, 0, 0, 0],
				[0, 2, 0, 0, 4, 0, 0, 0, 0, 4],
				[3, 0, 2, 0, 0, 0, 0, 1, 0, 0],
				[0, 2, 0, 0, 5, 0, 2, 0, 0, 2]
			]
		},
		{
			"Id" : "m19",
			"Difficulty" : 1,
			"Width" : 10,
			"Height" : 10,
			"LevelData" : 
			[	
				[0, 3, 0, 0, 0, 4, 0, 0, 0, 3],
				[2, 0, 3, 0, 2, 0, 0, 0, 0, 0],
				[0, 0, 0, 0, 0, 0, 2, 0, 0, 3],
				[0, 0, 5, 0, 4, 0, 0, 1, 0, 0],
				[0, 0, 0, 0, 0, 0, 2, 0, 0, 1],
				[0, 0, 1, 0, 0, 0, 0, 0, 0, 0],
				[0, 0, 0, 0, 0, 0, 0, 0, 0, 0],
				[0, 4, 0, 0, 3, 0, 0, 0, 0, 0],
				[0, 0, 0, 0, 0, 0, 1, 0, 0, 0],
				[3, 0, 0, 3, 0, 5, 0, 3, 0, 2]
			]
		},
		{
			"Id" : "m20",
			"Difficulty" : 1,
			"Width" : 10,
			"Height" : 10,
			"LevelData" : 
			[	
				[1, 0, 2, 0, 0, 0, 0, 0, 0, 3],
				[0, 0, 0, 0, 0, 0, 0, 0, 0, 0],
				[0, 0, 3, 0, 0, 0, 0, 4, 0, 3],
				[0, 0, 0, 0, 0, 0, 0, 0, 0, 0],
				[0, 0, 0, 3, 0, 0, 0, 3, 0, 0],
				[0, 0, 0, 0, 0, 0, 0, 0, 0, 0],
				[0, 0, 0, 1, 0, 2, 0, 0, 0, 5],
				[0, 0, 4, 0, 0, 0, 0, 2, 0, 0],
				[0, 0, 0, 1, 0, 2, 0, 0, 0, 3],
				[3, 0, 5, 0, 0, 0, 2, 0, 0, 0]
			]
		},
		{
			"Id" : "m21",
			"Difficulty" : 1,
			"Width" : 10,
			"Height" : 10,
			"LevelData" : 
			[	
				[2, 0, 5, 0, 0, 0, 0, 3, 0, 1],
				[0, 0, 0, 0, 0, 0, 0, 0, 0, 0],
				[1, 0, 0, 0, 0, 0, 0, 1, 0, 1],
				[0, 0, 0, 0, 0, 0, 0, 0, 0, 0],
				[2, 0, 7, 0, 0, 0, 0, 0, 0, 4],
				[0, 0, 0, 0, 0, 0, 0, 1, 0, 0],
				[0, 0, 0, 0, 0, 0, 0, 0, 0, 0],
				[2, 0, 0, 0, 0, 0, 0, 2, 0, 3],
				[0, 0, 0, 0, 0, 0, 0, 0, 0, 0],
				[4, 0, 4, 0, 2, 0, 0, 0, 0, 3]
			]
		},
		{
			"Id" : "m22",
			"Difficulty" : 1,
			"Width" : 10,
			"Height" : 10,
			"LevelData" : 
			[	
				[2, 0, 3, 0, 3, 0, 4, 0, 0, 3],
				[0, 0, 0, 0, 0, 0, 0, 0, 1, 0],
				[4, 0, 0, 0, 1, 0, 0, 0, 0, 0],
				[0, 0, 0, 0, 0, 0, 0, 0, 0, 0],
				[4, 0, 0, 2, 0, 0, 4, 0, 5, 0],
				[0, 0, 0, 0, 0, 0, 0, 0, 0, 1],
				[0, 0, 2, 0, 0, 0, 0, 0, 4, 0],
				[5, 0, 0, 0, 0, 0, 3, 0, 0, 3],
				[0, 0, 0, 0, 0, 0, 0, 0, 0, 0],
				[4, 0, 0, 0, 0, 0, 0, 4, 0, 4]
			]
		},
		{
			"Id" : "m23",
			"Difficulty" : 1,
			"Width" : 10,
			"Height" : 10,
			"LevelData" : 
			[	
				[3, 0, 2, 0, 0, 0, 0, 0, 3, 0],
				[0, 4, 0, 6, 0, 0, 0, 4, 0, 2],
				[0, 0, 0, 0, 0, 0, 0, 0, 2, 0],
				[0, 2, 0, 0, 1, 0, 0, 3, 0, 0],
				[3, 0, 0, 6, 0, 0, 0, 0, 0, 5],
				[0, 0, 0, 0, 0, 0, 3, 0, 1, 0],
				[1, 0, 0, 0, 0, 0, 0, 0, 0, 0],
				[0, 0, 0, 0, 0, 0, 4, 0, 0, 5],
				[0, 2, 0, 5, 0, 3, 0, 2, 0, 0],
				[2, 0, 0, 0, 0, 0, 0, 0, 0, 2]
			]
		},
		{
			"Id" : "m24",
			"Difficulty" : 1,
			"Width" : 10,
			"Height" : 10,
			"LevelData" : 
			[	
				[0, 3, 0, 0, 0, 0, 4, 0, 1, 0],
				[0, 0, 0, 3, 0, 2, 0, 2, 0, 2],
				[1, 0, 0, 0, 0, 0, 0, 0, 0, 0],
				[0, 0, 0, 0, 0, 1, 0, 1, 0, 0],
				[0, 4, 0, 6, 0, 0, 5, 0, 0, 4],
				[5, 0, 2, 0, 2, 0, 0, 0, 0, 0],
				[0, 0, 0, 1, 0, 0, 0, 0, 0, 0],
				[0, 0, 2, 0, 7, 0, 4, 0, 1, 0],
				[0, 0, 0, 0, 0, 0, 0, 0, 0, 0],
				[4, 0, 0, 0, 5, 0, 0, 3, 0, 3]
			]
		},
		{
			"Id" : "m25",
			"Difficulty" : 1,
			"Width" : 10,
			"Height" : 10,
			"LevelData" : 
			[	
				[4, 0, 0, 0, 0, 6, 0, 0, 0, 4],
				[0, 0, 3, 0, 2, 0, 0, 1, 0, 0],
				[0, 0, 0, 0, 0, 0, 0, 0, 0, 0],
				[3, 0, 3, 0, 0, 4, 0, 2, 0, 0],
				[0, 0, 0, 0, 0, 0, 0, 0, 0, 0],
				[4, 0, 6, 0, 0, 0, 0, 0, 0, 6],
				[0, 0, 0, 1, 0, 4, 0, 0, 1, 0],
				[3, 0, 0, 0, 0, 0, 1, 0, 0, 0],
				[0, 0, 2, 0, 0, 3, 0, 0, 0, 0],
				[2, 0, 0, 0, 0, 0, 2, 0, 0, 3]
			]
		},
		{
			"Id" : "m26",
			"Difficulty" : 1,
			"Width" : 10,
			"Height" : 10,
			"LevelData" : 
			[	
				[0, 0, 2, 0, 0, 6, 0, 3, 0, 0],
				[2, 0, 0, 1, 0, 0, 0, 0, 0, 2],
				[0, 2, 0, 0, 0, 4, 0, 0, 0, 0],
				[0, 0, 3, 0, 0, 0, 0, 3, 0, 0],
				[0, 0, 0, 0, 0, 0, 0, 0, 0, 4],
				[5, 0, 4, 0, 2, 0, 0, 4, 0, 0],
				[0, 3, 0, 3, 0, 1, 0, 0, 0, 0],
				[0, 0, 0, 0, 0, 0, 0, 0, 0, 0],
				[0, 3, 0, 0, 0, 0, 0, 4, 0, 3],
				[2, 0, 0, 0, 0, 0, 0, 0, 0, 0]
			]
		},
		{
			"Id" : "m27",
			"Difficulty" : 1,
			"Width" : 10,
			"Height" : 10,
			"LevelData" : 
			[	
				[3, 0, 2, 0, 0, 0, 0, 0, 0, 3],
				[0, 3, 0, 0, 0, 0, 0, 0, 3, 0],
				[0, 0, 0, 2, 0, 0, 1, 0, 0, 0],
				[0, 3, 0, 0, 0, 0, 0, 0, 0, 2],
				[0, 0, 0, 4, 0, 0, 0, 0, 4, 0],
				[0, 2, 0, 0, 0, 0, 0, 0, 0, 0],
				[5, 0, 0, 6, 0, 0, 0, 4, 0, 0],
				[0, 0, 0, 0, 0, 0, 0, 0, 0, 0],
				[0, 1, 0, 5, 0, 2, 0, 2, 0, 0],
				[3, 0, 0, 0, 0, 0, 0, 0, 2, 0]
			]
		},
		{
			"Id" : "m28",
			"Difficulty" : 1,
			"Width" : 10,
			"Height" : 10,
			"LevelData" : 
			[	
				[3, 0, 0, 0, 4, 0, 0, 5, 0, 4],
				[0, 3, 0, 0, 0, 3, 0, 0, 2, 0],
				[2, 0, 0, 0, 0, 0, 0, 1, 0, 4],
				[0, 0, 0, 3, 0, 7, 0, 0, 4, 0],
				[0, 1, 0, 0, 0, 0, 0, 0, 0, 0],
				[0, 0, 0, 1, 0, 0, 0, 2, 0, 6],
				[0, 0, 0, 0, 0, 0, 0, 0, 0, 0],
				[3, 0, 0, 0, 0, 5, 0, 0, 0, 5],
				[0, 0, 0, 0, 0, 0, 0, 0, 0, 0],
				[2, 0, 1, 0, 1, 0, 0, 0, 0, 2]
			]
		},
		{
			"Id" : "m29",
			"Difficulty" : 1,
			"Width" : 10,
			"Height" : 10,
			"LevelData" : 
			[	
				[4, 0, 0, 0, 0, 3, 0, 3, 0, 3],
				[0, 0, 2, 0, 2, 0, 0, 0, 0, 0],
				[0, 0, 0, 0, 0, 5, 0, 8, 0, 6],
				[0, 0, 0, 0, 0, 0, 0, 0, 0, 0],
				[0, 0, 0, 0, 1, 0, 0, 3, 0, 0],
				[5, 0, 5, 0, 0, 3, 0, 0, 1, 0],
				[0, 0, 0, 0, 0, 0, 0, 0, 0, 0],
				[3, 0, 0, 0, 0, 0, 0, 0, 0, 0],
				[0, 0, 0, 0, 0, 0, 0, 1, 0, 1],
				[3, 0, 4, 0, 0, 0, 0, 0, 3, 0]
			]
		},
		{
			"Id" : "m30",
			"Difficulty" : 1,
			"Width" : 10,
			"Height" : 10,
			"LevelData" : 
			[	
				[0, 0, 2, 0, 4, 0, 0, 0, 0, 3],
				[2, 0, 0, 0, 0, 4, 0, 0, 2, 0],
				[0, 0, 0, 0, 0, 0, 0, 3, 0, 5],
				[0, 2, 0, 0, 0, 3, 0, 0, 0, 0],
				[0, 0, 3, 0, 4, 0, 0, 3, 0, 4],
				[0, 0, 0, 0, 0, 0, 0, 0, 0, 0],
				[0, 0, 0, 0, 0, 0, 0, 0, 0, 1],
				[0, 0, 0, 0, 0, 0, 0, 0, 0, 0],
				[1, 0, 1, 0, 0, 1, 0, 0, 0, 0],
				[0, 2, 0, 0, 4, 0, 0, 4, 0, 2]
			]
		}
	],
	"Hard" :
	[
		{
			"Id" : "h1",
			"Difficulty" : 2,
			"Width" : 10,
			"Height" : 10,
			"LevelData" : 
			[	
				[3, 0, 5, 0, 4, 0, 2, 0, 2, 0],
				[0, 0, 0, 0, 0, 0, 0, 0, 0, 2],
				[0, 0, 0, 0, 2, 0, 0, 0, 5, 0],
				[0, 0, 0, 0, 0, 0, 0, 0, 0, 4],
				[0, 0, 3, 0, 4, 0, 0, 1, 0, 0],
				[5, 0, 0, 0, 0, 0, 0, 0, 6, 0],
				[0, 0, 0, 1, 0, 5, 0, 2, 0, 0],
				[0, 2, 0, 0, 3, 0, 0, 0, 0, 0],
				[0, 0, 0, 0, 0, 4, 0, 0, 4, 0],
				[4, 0, 0, 0, 5, 0, 0, 3, 0, 3]
			]
		},
		{
			"Id" : "h2",
			"Difficulty" : 2,
			"Width" : 10,
			"Height" : 10,
			"LevelData" : 
			[	
				[3, 0, 0, 0, 3, 0, 5, 0, 0, 4],
				[0, 0, 0, 0, 0, 0, 0, 0, 0, 0],
				[0, 1, 0, 0, 0, 0, 3, 0, 0, 4],
				[5, 0, 0, 0, 0, 0, 0, 0, 4, 0],
				[0, 0, 0, 0, 0, 0, 0, 0, 0, 1],
				[0, 0, 0, 0, 2, 0, 4, 0, 4, 0],
				[0, 0, 0, 0, 0, 0, 0, 0, 0, 0],
				[4, 0, 0, 0, 0, 0, 0, 0, 0, 3],
				[0, 0, 0, 0, 0, 0, 0, 0, 0, 0],
				[4, 0, 0, 0, 4, 0, 0, 0, 0, 4]
			]
		},
		{
			"Id" : "h3",
			"Difficulty" : 2,
			"Width" : 10,
			"Height" : 10,
			"LevelData" : 
			[	
				[4, 0, 0, 3, 0, 0, 0, 0, 0, 0],
				[0, 1, 0, 0, 1, 0, 3, 0, 0, 1],
				[4, 0, 0, 0, 0, 0, 0, 0, 0, 0],
				[0, 4, 0, 5, 0, 0, 7, 0, 0, 5],
				[0, 0, 0, 0, 0, 0, 0, 0, 1, 0],
				[0, 2, 0, 0, 0, 0, 0, 0, 0, 0],
				[0, 0, 0, 0, 0, 0, 1, 0, 0, 0],
				[0, 2, 0, 3, 0, 0, 0, 0, 0, 0],
				[3, 0, 0, 0, 0, 0, 0, 0, 2, 0],
				[0, 0, 1, 0, 0, 3, 0, 0, 0, 4]
			]
		},
		{
			"Id" : "h4",
			"Difficulty" : 2,
			"Width" : 10,
			"Height" : 10,
			"LevelData" : 
			[	
				[3, 0, 0, 0, 0, 4, 0, 4, 0, 4],
				[0, 0, 0, 0, 0, 0, 0, 0, 0, 0],
				[0, 2, 0, 3, 0, 3, 0, 0, 0, 0],
				[0, 0, 2, 0, 2, 0, 0, 0, 0, 0],
				[0, 1, 0, 1, 0, 0, 0, 0, 0, 3],
				[5, 0, 8, 0, 4, 0, 0, 0, 0, 0],
				[0, 0, 0, 0, 0, 0, 0, 0, 0, 1],
				[0, 0, 0, 0, 0, 0, 0, 2, 0, 0],
				[2, 0, 4, 0, 0, 3, 0, 0, 0, 0],
				[0, 0, 0, 0, 1, 0, 0, 2, 0, 0]
			]
		},
		{
			"Id" : "h5",
			"Difficulty" : 2,
			"Width" : 10,
			"Height" : 10,
			"LevelData" : 
			[	
				[2, 0, 0, 0, 0, 4, 0, 0, 0, 4],
				[0, 0, 0, 0, 0, 0, 0, 0, 0, 0],
				[0, 0, 2, 0, 0, 5, 0, 2, 0, 5],
				[0, 0, 0, 0, 0, 0, 0, 0, 0, 0],
				[0, 2, 0, 4, 0, 4, 0, 0, 0, 0],
				[4, 0, 0, 0, 0, 0, 0, 4, 0, 0],
				[0, 0, 0, 0, 0, 0, 0, 0, 0, 0],
				[4, 0, 0, 0, 0, 0, 1, 0, 0, 0],
				[0, 1, 0, 0, 0, 0, 0, 2, 0, 0],
				[3, 0, 0, 0, 0, 0, 0, 0, 0, 3]
			]
		},
		{
			"Id" : "h6",
			"Difficulty" : 2,
			"Width" : 10,
			"Height" : 10,
			"LevelData" : 
			[	
				[3, 0, 0, 0, 0, 2, 0, 4, 0, 4],
				[0, 0, 0, 0, 0, 0, 2, 0, 0, 0],
				[2, 0, 2, 0, 0, 1, 0, 2, 0, 0],
				[0, 0, 0, 0, 0, 0, 4, 0, 0, 6],
				[0, 0, 0, 0, 0, 0, 0, 0, 0, 0],
				[2, 0, 5, 0, 0, 6, 0, 0, 0, 5],
				[0, 0, 0, 0, 0, 0, 0, 0, 0, 0],
				[0, 0, 0, 2, 0, 5, 0, 0, 4, 0],
				[1, 0, 0, 0, 0, 0, 0, 0, 0, 1],
				[0, 0, 3, 0, 0, 3, 0, 0, 3, 0]
			]
		},
		{
			"Id" : "h7",
			"Difficulty" : 2,
			"Width" : 10,
			"Height" : 10,
			"LevelData" : 
			[	
				[2, 0, 1, 0, 3, 0, 0, 0, 1, 0],
				[0, 0, 0, 0, 0, 0, 0, 0, 0, 1],
				[5, 0, 0, 0, 6, 0, 0, 0, 2, 0],
				[0, 0, 0, 0, 0, 0, 0, 0, 0, 0],
				[0, 0, 2, 0, 3, 0, 0, 0, 0, 4],
				[0, 0, 0, 0, 0, 0, 4, 0, 3, 0],
				[0, 0, 0, 0, 0, 0, 0, 0, 0, 0],
				[0, 0, 1, 0, 0, 0, 0, 0, 1, 0],
				[0, 0, 0, 0, 0, 0, 0, 0, 0, 0],
				[4, 0, 0, 0, 4, 0, 4, 0, 0, 3]
			]
		},
		{
			"Id" : "h8",
			"Difficulty" : 2,
			"Width" : 10,
			"Height" : 10,
			"LevelData" : 
			[	
				[2, 0, 0, 0, 0, 0, 1, 0, 0, 0],
				[0, 0, 1, 0, 0, 2, 0, 0, 0, 3],
				[5, 0, 0, 2, 0, 0, 0, 0, 0, 0],
				[0, 0, 0, 0, 0, 0, 0, 0, 0, 0],
				[5, 0, 0, 3, 0, 0, 0, 0, 3, 0],
				[0, 0, 0, 0, 0, 0, 0, 1, 0, 0],
				[0, 0, 0, 0, 0, 0, 0, 0, 2, 0],
				[4, 0, 0, 0, 0, 0, 0, 5, 0, 4],
				[0, 0, 0, 0, 0, 0, 0, 0, 0, 0],
				[2, 0, 1, 0, 0, 0, 0, 1, 0, 1]
			]
		},
		{
			"Id" : "h9",
			"Difficulty" : 2,
			"Width" : 10,
			"Height" : 10,
			"LevelData" : 
			[	
				[2, 0, 3, 0, 0, 5, 0, 0, 0, 3],
				[0, 0, 0, 0, 0, 0, 0, 0, 0, 0],
				[0, 1, 0, 0, 0, 3, 0, 2, 0, 0],
				[0, 0, 0, 0, 0, 0, 0, 0, 0, 0],
				[3, 0, 0, 0, 0, 0, 0, 8, 0, 6],
				[0, 0, 0, 0, 0, 0, 0, 0, 0, 0],
				[0, 0, 0, 0, 0, 0, 0, 0, 0, 0],
				[2, 0, 0, 0, 0, 0, 0, 5, 0, 6],
				[0, 0, 0, 0, 0, 0, 0, 0, 0, 0],
				[2, 0, 3, 0, 0, 0, 0, 3, 0, 3]
			]
		},
		{
			"Id" : "h10",
			"Difficulty" : 2,
			"Width" : 10,
			"Height" : 10,
			"LevelData" : 
			[	
				[3, 0, 0, 0, 4, 0, 3, 0, 0, 2],
				[0, 3, 0, 3, 0, 0, 0, 0, 0, 0],
				[0, 0, 0, 0, 0, 0, 0, 0, 0, 0],
				[0, 2, 0, 0, 0, 0, 5, 0, 1, 0],
				[0, 0, 0, 0, 0, 0, 0, 0, 0, 0],
				[0, 0, 0, 0, 0, 0, 0, 0, 0, 0],
				[0, 0, 0, 0, 0, 0, 3, 0, 1, 0],
				[4, 0, 2, 0, 3, 0, 0, 0, 0, 4],
				[0, 0, 0, 0, 0, 0, 0, 0, 0, 0],
				[3, 0, 0, 6, 0, 0, 0, 0, 0, 4]
			]
		},
		{
			"Id" : "h11",
			"Difficulty" : 2,
			"Width" : 10,
			"Height" : 12,
			"LevelData" : 
			[	
				[0, 3, 0, 0, 3, 0, 0, 3, 0, 0],
				[0, 0, 0, 0, 0, 0, 0, 0, 0, 0],
				[0, 0, 0, 1, 0, 2, 0, 0, 0, 1],
				[0, 2, 0, 0, 0, 0, 1, 0, 0, 0],
				[0, 0, 0, 0, 0, 0, 0, 2, 0, 0],
				[0, 0, 0, 0, 0, 3, 0, 0, 0, 0],
				[0, 4, 0, 2, 0, 0, 2, 0, 0, 4],
				[0, 0, 0, 0, 0, 0, 0, 0, 0, 0],
				[0, 0, 1, 0, 0, 5, 0, 0, 0, 4],
				[0, 0, 0, 0, 1, 0, 0, 0, 0, 0],
				[0, 0, 0, 0, 0, 0, 0, 0, 0, 0],
				[0, 3, 0, 0, 5, 0, 0, 2, 0, 0]
			]
		},
		{
			"Id" : "h12",
			"Difficulty" : 2,
			"Width" : 10,
			"Height" : 12,
			"LevelData" : 
			[	
				[0, 0, 0, 0, 0, 0, 0, 0, 0, 0],
				[2, 0, 0, 4, 0, 0, 4, 0, 0, 3],
				[0, 0, 0, 0, 0, 0, 0, 0, 0, 0],
				[0, 0, 0, 0, 0, 0, 1, 0, 0, 0],
				[5, 0, 0, 7, 0, 0, 0, 0, 2, 0],
				[0, 0, 0, 0, 0, 0, 0, 0, 0, 0],
				[0, 0, 0, 0, 0, 0, 3, 0, 0, 3],
				[0, 0, 0, 0, 0, 0, 0, 0, 0, 0],
				[4, 0, 0, 2, 0, 0, 3, 0, 0, 3],
				[0, 0, 0, 0, 0, 0, 0, 0, 0, 0],
				[2, 0, 0, 1, 0, 2, 0, 0, 0, 3],
				[0, 0, 0, 0, 0, 0, 0, 0, 0, 0]
			]
		},
		{
			"Id" : "h13",
			"Difficulty" : 2,
			"Width" : 10,
			"Height" : 12,
			"LevelData" : 
			[	
				[4, 0, 0, 0, 0, 0, 0, 0, 0, 3],
				[0, 0, 3, 0, 0, 5, 0, 2, 0, 0],
				[0, 0, 0, 0, 0, 0, 0, 0, 0, 0],
				[5, 0, 7, 0, 2, 0, 0, 1, 0, 0],
				[0, 0, 0, 2, 0, 5, 0, 0, 1, 0],
				[2, 0, 0, 0, 0, 0, 0, 0, 0, 0],
				[0, 0, 0, 0, 0, 0, 0, 4, 0, 5],
				[3, 0, 0, 2, 0, 1, 0, 0, 1, 0],
				[0, 0, 0, 0, 1, 0, 0, 3, 0, 2],
				[3, 0, 5, 0, 0, 0, 0, 0, 2, 0],
				[0, 0, 0, 2, 0, 2, 0, 2, 0, 0],
				[1, 0, 3, 0, 2, 0, 0, 0, 2, 0]
			]
		},
		{
			"Id" : "h14",
			"Difficulty" : 2,
			"Width" : 10,
			"Height" : 12,
			"LevelData" : 
			[	
				[3, 0, 0, 0, 0, 2, 0, 2, 0, 3],
				[0, 0, 0, 0, 0, 0, 0, 0, 0, 0],
				[3, 0, 0, 3, 0, 5, 0, 0, 3, 0],
				[0, 0, 0, 0, 0, 0, 0, 1, 0, 0],
				[3, 0, 1, 0, 0, 2, 0, 0, 3, 0],
				[0, 4, 0, 7, 0, 0, 0, 5, 0, 0],
				[0, 0, 0, 0, 4, 0, 2, 0, 0, 0],
				[1, 0, 0, 0, 0, 0, 0, 0, 2, 0],
				[0, 2, 0, 2, 0, 0, 0, 0, 0, 0],
				[2, 0, 0, 0, 7, 0, 0, 7, 0, 3],
				[0, 0, 0, 0, 0, 0, 0, 0, 0, 0],
				[1, 0, 0, 0, 2, 0, 0, 2, 0, 1]
			]
		},
		{
			"Id" : "h15",
			"Difficulty" : 2,
			"Width" : 10,
			"Height" : 12,
			"LevelData" : 
			[	
				[0, 0, 0, 0, 1, 0, 0, 0, 0, 3],
				[0, 0, 1, 0, 0, 0, 1, 0, 1, 0],
				[0, 0, 0, 0, 0, 0, 0, 0, 0, 0],
				[2, 0, 5, 0, 0, 0, 4, 0, 3, 0],
				[0, 0, 0, 0, 2, 0, 0, 0, 0, 4],
				[0, 0, 0, 0, 0, 0, 0, 0, 0, 0],
				[0, 0, 0, 0, 3, 0, 0, 0, 0, 4],
				[1, 0, 3, 0, 0, 0, 0, 0, 0, 0],
				[0, 0, 0, 0, 0, 0, 0, 0, 0, 0],
				[0, 0, 0, 0, 2, 0, 1, 0, 0, 0],
				[0, 0, 0, 1, 0, 0, 0, 0, 0, 3],
				[1, 0, 4, 0, 0, 0, 2, 0, 0, 0]
			]
		},
		{
			"Id" : "h16",
			"Difficulty" : 2,
			"Width" : 10,
			"Height" : 12,
			"LevelData" : 
			[	
				[2, 0, 0, 0, 0, 0, 0, 3, 0, 3],
				[0, 1, 0, 2, 0, 0, 1, 0, 0, 0],
				[0, 0, 0, 0, 0, 0, 0, 0, 0, 0],
				[0, 2, 0, 4, 0, 0, 3, 0, 0, 4],
				[0, 0, 0, 0, 0, 0, 0, 0, 0, 0],
				[0, 0, 0, 0, 0, 0, 0, 0, 0, 0],
				[3, 0, 0, 5, 0, 2, 0, 4, 0, 6],
				[0, 0, 0, 0, 1, 0, 3, 0, 0, 0],
				[0, 2, 0, 5, 0, 4, 0, 5, 0, 5],
				[2, 0, 2, 0, 3, 0, 0, 0, 2, 0],
				[0, 0, 0, 0, 0, 0, 0, 0, 0, 0],
				[0, 0, 1, 0, 0, 0, 2, 0, 0, 2]
			]
		},
		{
			"Id" : "h17",
			"Difficulty" : 2,
			"Width" : 10,
			"Height" : 12,
			"LevelData" : 
			[	
				[3, 0, 0, 0, 0, 4, 0, 0, 0, 2],
				[0, 0, 0, 0, 0, 0, 0, 0, 0, 0],
				[0, 2, 0, 1, 0, 3, 0, 4, 0, 3],
				[0, 0, 0, 0, 0, 0, 0, 0, 0, 0],
				[0, 0, 0, 0, 0, 2, 0, 0, 0, 0],
				[0, 2, 0, 4, 0, 0, 0, 7, 0, 3],
				[0, 0, 0, 0, 0, 0, 0, 0, 0, 0],
				[0, 0, 0, 1, 0, 0, 0, 0, 2, 0],
				[0, 2, 0, 0, 0, 0, 0, 3, 0, 1],
				[3, 0, 0, 0, 0, 0, 0, 0, 5, 0],
				[0, 0, 0, 0, 0, 0, 0, 0, 0, 0],
				[1, 0, 0, 0, 0, 3, 0, 0, 3, 0]
			]
		},
		{
			"Id" : "h18",
			"Difficulty" : 2,
			"Width" : 10,
			"Height" : 12,
			"LevelData" : 
			[	
				[2, 0, 0, 3, 0, 0, 2, 0, 0, 0],
				[0, 0, 0, 0, 0, 0, 0, 0, 0, 0],
				[2, 0, 0, 5, 0, 0, 5, 0, 4, 0],
				[0, 0, 2, 0, 0, 0, 0, 0, 0, 0],
				[0, 0, 0, 5, 0, 3, 0, 0, 0, 1],
				[2, 0, 5, 0, 0, 0, 0, 0, 0, 0],
				[0, 1, 0, 0, 0, 0, 0, 0, 0, 0],
				[0, 0, 0, 3, 0, 0, 0, 0, 0, 0],
				[0, 0, 2, 0, 0, 2, 0, 0, 4, 0],
				[0, 2, 0, 4, 0, 0, 0, 0, 0, 0],
				[0, 0, 0, 0, 0, 1, 0, 0, 2, 0],
				[3, 0, 0, 4, 0, 0, 4, 0, 0, 3]
			]
		},
		{
			"Id" : "h19",
			"Difficulty" : 2,
			"Width" : 10,
			"Height" : 12,
			"LevelData" : 
			[	
				[1, 0, 0, 2, 0, 0, 0, 0, 0, 1],
				[0, 0, 0, 0, 0, 0, 0, 0, 0, 0],
				[5, 0, 0, 4, 0, 2, 0, 5, 0, 4],
				[0, 0, 0, 0, 0, 0, 1, 0, 1, 0],
				[0, 3, 0, 4, 0, 0, 0, 0, 0, 0],
				[0, 0, 0, 0, 0, 0, 0, 0, 0, 0],
				[0, 2, 0, 0, 0, 0, 2, 0, 0, 0],
				[5, 0, 4, 0, 0, 0, 0, 2, 0, 0],
				[0, 0, 0, 2, 0, 0, 2, 0, 4, 0],
				[0, 0, 2, 0, 0, 0, 0, 0, 0, 0],
				[3, 0, 0, 0, 0, 4, 0, 0, 3, 0],
				[0, 2, 0, 0, 0, 0, 0, 0, 0, 4]
			]
		},
		{
			"Id" : "h20",
			"Difficulty" : 2,
			"Width" : 10,
			"Height" : 12,
			"LevelData" : 
			[	
				[0, 3, 0, 0, 0, 0, 0, 0, 2, 0],
				[1, 0, 0, 0, 0, 1, 0, 0, 0, 2],
				[0, 3, 0, 0, 1, 0, 1, 0, 2, 0],
				[0, 0, 0, 0, 0, 0, 0, 0, 0, 0],
				[0, 4, 0, 0, 0, 0, 0, 0, 4, 0],
				[0, 0, 3, 0, 3, 0, 2, 0, 0, 3],
				[2, 0, 0, 0, 0, 0, 0, 0, 0, 0],
				[0, 0, 3, 0, 0, 0, 0, 0, 2, 0],
				[0, 4, 0, 0, 0, 0, 0, 0, 0, 4],
				[2, 0, 0, 1, 0, 0, 4, 0, 2, 0],
				[0, 4, 0, 0, 0, 2, 0, 0, 0, 0],
				[2, 0, 0, 0, 0, 0, 3, 0, 0, 2]
			]
		},
		{
			"Id" : "h21",
			"Difficulty" : 2,
			"Width" : 10,
			"Height" : 12,
			"LevelData" : 
			[	
				[2, 0, 0, 0, 0, 0, 0, 1, 0, 2],
				[0, 0, 0, 3, 0, 0, 0, 0, 2, 0],
				[0, 0, 0, 0, 0, 0, 0, 0, 0, 0],
				[4, 0, 0, 5, 0, 2, 0, 2, 0, 5],
				[0, 1, 0, 0, 0, 0, 0, 0, 0, 0],
				[4, 0, 0, 3, 0, 0, 0, 4, 0, 0],
				[0, 0, 0, 0, 0, 0, 0, 0, 0, 0],
				[0, 4, 0, 4, 0, 1, 0, 0, 0, 0],
				[2, 0, 0, 0, 0, 0, 0, 0, 0, 0],
				[0, 5, 0, 0, 0, 5, 0, 4, 0, 4],
				[0, 0, 0, 0, 0, 0, 0, 0, 0, 0],
				[0, 3, 0, 0, 0, 3, 0, 0, 0, 2]
			]
		},
		{
			"Id" : "h22",
			"Difficulty" : 2,
			"Width" : 10,
			"Height" : 12,
			"LevelData" : 
			[	
				[2, 0, 0, 0, 0, 3, 0, 0, 0, 0],
				[0, 0, 0, 0, 0, 0, 0, 2, 0, 4],
				[0, 0, 0, 0, 0, 2, 0, 0, 0, 0],
				[4, 0, 0, 0, 0, 0, 0, 0, 0, 5],
				[0, 0, 0, 0, 0, 3, 0, 0, 3, 0],
				[0, 1, 0, 2, 0, 0, 0, 0, 0, 0],
				[5, 0, 3, 0, 0, 0, 0, 0, 0, 0],
				[0, 0, 0, 0, 0, 3, 0, 0, 3, 0],
				[0, 0, 2, 0, 0, 0, 0, 0, 0, 0],
				[5, 0, 0, 5, 0, 5, 0, 0, 3, 0],
				[0, 0, 0, 0, 0, 0, 0, 0, 0, 0],
				[2, 0, 0, 0, 0, 0, 0, 0, 0, 3]
			]
		},
		{
			"Id" : "h23",
			"Difficulty" : 2,
			"Width" : 10,
			"Height" : 12,
			"LevelData" : 
			[	
				[2, 0, 2, 0, 0, 0, 0, 0, 0, 3],
				[0, 0, 0, 0, 0, 0, 0, 0, 0, 0],
				[0, 0, 0, 0, 0, 0, 0, 0, 0, 3],
				[5, 0, 6, 0, 0, 0, 0, 0, 2, 0],
				[0, 0, 0, 0, 0, 0, 0, 0, 0, 0],
				[0, 0, 0, 0, 2, 0, 0, 1, 0, 2],
				[0, 0, 0, 0, 0, 0, 0, 0, 0, 0],
				[0, 0, 0, 0, 4, 0, 0, 2, 0, 0],
				[0, 0, 0, 0, 0, 0, 1, 0, 3, 0],
				[2, 0, 0, 0, 0, 0, 0, 1, 0, 0],
				[0, 0, 4, 0, 6, 0, 3, 0, 2, 0],
				[2, 0, 0, 0, 0, 0, 0, 0, 0, 2]
			]
		},
		{
			"Id" : "h24",
			"Difficulty" : 2,
			"Width" : 10,
			"Height" : 12,
			"LevelData" : 
			[	
				[3, 0, 4, 0, 4, 0, 0, 0, 0, 4],
				[0, 0, 0, 0, 0, 0, 0, 0, 0, 0],
				[0, 2, 0, 0, 5, 0, 0, 0, 0, 5],
				[0, 0, 0, 0, 0, 0, 0, 0, 0, 0],
				[0, 3, 0, 3, 0, 0, 1, 0, 1, 0],
				[0, 0, 0, 0, 0, 0, 0, 0, 0, 0],
				[1, 0, 0, 1, 0, 0, 4, 0, 4, 0],
				[0, 3, 0, 0, 4, 0, 0, 0, 0, 0],
				[0, 0, 0, 0, 0, 0, 0, 0, 2, 0],
				[0, 0, 0, 0, 2, 0, 5, 0, 0, 5],
				[0, 2, 0, 0, 0, 0, 0, 0, 1, 0],
				[0, 0, 0, 0, 2, 0, 0, 0, 0, 3]
			]
		},
		{
			"Id" : "h25",
			"Difficulty" : 2,
			"Width" : 10,
			"Height" : 12,
			"LevelData" : 
			[	
				[0, 0, 0, 0, 0, 0, 0, 0, 0, 0],
				[0, 1, 0, 2, 0, 3, 0, 4, 0, 3],
				[0, 0, 0, 0, 0, 0, 0, 0, 0, 0],
				[0, 0, 0, 2, 0, 0, 1, 0, 0, 2],
				[1, 0, 0, 0, 0, 0, 0, 0, 0, 0],
				[0, 2, 0, 3, 0, 0, 0, 7, 0, 4],
				[2, 0, 0, 0, 5, 0, 2, 0, 0, 0],
				[0, 0, 0, 0, 0, 0, 0, 0, 0, 0],
				[2, 0, 0, 0, 4, 0, 0, 6, 0, 5],
				[0, 0, 0, 0, 0, 0, 0, 0, 0, 0],
				[2, 0, 0, 2, 0, 1, 0, 2, 0, 2],
				[0, 0, 0, 0, 0, 0, 0, 0, 0, 0]
			]
		},
		{
			"Id" : "h26",
			"Difficulty" : 2,
			"Width" : 10,
			"Height" : 12,
			"LevelData" : 
			[	
				[0, 0, 0, 0, 0, 0, 0, 0, 0, 0],
				[3, 0, 0, 0, 0, 2, 0, 0, 0, 3],
				[0, 3, 0, 0, 0, 0, 0, 0, 3, 0],
				[0, 0, 0, 3, 0, 0, 0, 2, 0, 0],
				[4, 0, 0, 0, 3, 0, 3, 0, 0, 0],
				[0, 0, 0, 0, 0, 0, 0, 0, 0, 0],
				[0, 4, 0, 7, 0, 0, 0, 0, 0, 0],
				[4, 0, 2, 0, 3, 0, 4, 0, 3, 0],
				[0, 0, 0, 2, 0, 0, 0, 0, 0, 0],
				[2, 0, 4, 0, 3, 0, 0, 0, 2, 0],
				[0, 2, 0, 0, 0, 0, 0, 3, 0, 3],
				[0, 0, 0, 0, 0, 0, 0, 0, 0, 0]
			]
		},
		{
			"Id" : "h27",
			"Difficulty" : 2,
			"Width" : 10,
			"Height" : 12,
			"LevelData" : 
			[	
				[4, 0, 0, 0, 4, 0, 3, 0, 0, 1],
				[0, 0, 0, 0, 0, 0, 0, 0, 0, 0],
				[0, 2, 0, 0, 0, 0, 5, 0, 4, 0],
				[0, 0, 4, 0, 0, 2, 0, 0, 0, 0],
				[0, 1, 0, 0, 0, 0, 0, 0, 2, 0],
				[5, 0, 4, 0, 0, 0, 3, 0, 0, 3],
				[0, 0, 0, 0, 0, 0, 0, 0, 0, 0],
				[5, 0, 0, 0, 0, 0, 0, 0, 2, 0],
				[0, 0, 0, 0, 0, 0, 0, 0, 0, 1],
				[5, 0, 0, 0, 4, 0, 4, 0, 2, 0],
				[0, 0, 0, 0, 0, 0, 0, 0, 0, 0],
				[2, 0, 0, 0, 2, 0, 2, 0, 2, 0]
			]
		},
		{
			"Id" : "h28",
			"Difficulty" : 2,
			"Width" : 10,
			"Height" : 12,
			"LevelData" : 
			[	
				[0, 0, 0, 0, 2, 0, 0, 4, 0, 4],
				[3, 0, 0, 5, 0, 4, 0, 0, 2, 0],
				[0, 0, 0, 0, 0, 0, 1, 0, 0, 0],
				[4, 0, 2, 0, 0, 0, 0, 0, 0, 0],
				[0, 0, 0, 0, 0, 0, 3, 0, 5, 0],
				[2, 0, 0, 5, 0, 0, 0, 0, 0, 0],
				[0, 0, 1, 0, 0, 0, 1, 0, 4, 0],
				[2, 0, 0, 0, 0, 0, 0, 0, 0, 0],
				[0, 0, 0, 2, 0, 0, 1, 0, 2, 0],
				[5, 0, 6, 0, 0, 6, 0, 3, 0, 3],
				[0, 0, 0, 0, 0, 0, 0, 0, 0, 0],
				[2, 0, 2, 0, 0, 2, 0, 2, 0, 0]
			]
		},
		{
			"Id" : "h29",
			"Difficulty" : 2,
			"Width" : 10,
			"Height" : 12,
			"LevelData" : 
			[	
				[3, 0, 3, 0, 0, 0, 0, 0, 0, 0],
				[0, 0, 0, 0, 0, 0, 0, 2, 0, 3],
				[4, 0, 5, 0, 0, 0, 0, 0, 2, 0],
				[0, 2, 0, 0, 0, 0, 0, 3, 0, 3],
				[0, 0, 0, 0, 2, 0, 2, 0, 0, 0],
				[0, 0, 0, 0, 0, 0, 0, 0, 0, 0],
				[0, 0, 0, 0, 0, 0, 2, 0, 0, 0],
				[0, 5, 0, 0, 5, 0, 0, 3, 0, 0],
				[0, 0, 2, 0, 0, 0, 2, 0, 0, 0],
				[0, 2, 0, 0, 2, 0, 0, 0, 0, 0],
				[0, 0, 0, 0, 0, 0, 0, 2, 0, 0],
				[2, 0, 5, 0, 0, 0, 5, 0, 0, 3]
			]
		},
		{
			"Id" : "h30",
			"Difficulty" : 2,
			"Width" : 10,
			"Height" : 12,
			"LevelData" : 
			[	
				[0, 4, 0, 0, 5, 0, 2, 0, 0, 1],
				[1, 0, 0, 0, 0, 0, 0, 0, 0, 0],
				[0, 5, 0, 0, 4, 0, 0, 0, 0, 2],
				[3, 0, 0, 0, 0, 0, 0, 0, 0, 0],
				[0, 3, 0, 1, 0, 2, 0, 0, 0, 3],
				[0, 0, 0, 0, 0, 0, 0, 0, 0, 0],
				[5, 0, 0, 0, 7, 0, 0, 0, 2, 0],
				[0, 0, 0, 0, 0, 0, 0, 0, 0, 0],
				[0, 0, 2, 0, 6, 0, 0, 0, 2, 0],
				[3, 0, 0, 0, 0, 0, 0, 0, 0, 3],
				[0, 0, 0, 0, 0, 0, 0, 0, 0, 0],
				[3, 0, 0, 0, 4, 0, 0, 0, 0, 3]
			]
		}
	]
}